<?xml version="1.0" encoding="UTF-8" standalone="no"?>
<!-- Created with Inkscape (http://www.inkscape.org/) -->

<svg
   xmlns:dc="http://purl.org/dc/elements/1.1/"
   xmlns:cc="http://creativecommons.org/ns#"
   xmlns:rdf="http://www.w3.org/1999/02/22-rdf-syntax-ns#"
   xmlns:svg="http://www.w3.org/2000/svg"
   xmlns="http://www.w3.org/2000/svg"
   xmlns:sodipodi="http://sodipodi.sourceforge.net/DTD/sodipodi-0.dtd"
   xmlns:inkscape="http://www.inkscape.org/namespaces/inkscape"
   width="64"
   height="64"
   viewBox="0 0 64 64"
   id="svg2"
   version="1.1"
   inkscape:version="0.91 r13725"
   sodipodi:docname="atom.svg">
  <defs
     id="defs4" />
  <sodipodi:namedview
     id="base"
     pagecolor="#ffffff"
     bordercolor="#666666"
     borderopacity="1.0"
     inkscape:pageopacity="0.0"
     inkscape:pageshadow="2"
     inkscape:zoom="1.4"
     inkscape:cx="136.54581"
     inkscape:cy="141.32378"
     inkscape:document-units="px"
     inkscape:current-layer="layer1"
     showgrid="false"
     units="px"
     inkscape:window-width="1366"
     inkscape:window-height="703"
     inkscape:window-x="0"
     inkscape:window-y="0"
     inkscape:window-maximized="1" />
  <metadata
     id="metadata7">
    <rdf:RDF>
      <cc:Work
         rdf:about="">
        <dc:format>image/svg+xml</dc:format>
        <dc:type
           rdf:resource="http://purl.org/dc/dcmitype/StillImage" />
        <dc:title></dc:title>
      </cc:Work>
    </rdf:RDF>
  </metadata>
  <g
     inkscape:label="Layer 1"
     inkscape:groupmode="layer"
     id="layer1"
     transform="translate(0,-988.36216)">
    <rect
       style="fill:#2c925a;fill-opacity:1;fill-rule:evenodd;stroke:#000000;stroke-width:0;stroke-linecap:butt;stroke-linejoin:miter;stroke-miterlimit:4;stroke-dasharray:none;stroke-opacity:1"
       id="rect3336"
       width="49.684429"
       height="49.684429"
       x="-724.52789"
       y="719.29022"
       ry="11.450707"
       transform="matrix(0.70710678,-0.70710678,0.70710678,0.70710678,0,0)" />
    <path
       inkscape:connector-curvature="0"
       id="path4136"
       d="m 31.088751,1022.9233 c -0.637631,-0.2638 -1.257732,-1.0663 -1.373078,-1.7771 -0.216648,-1.3351 0.854737,-2.4594 2.343573,-2.4594 0.99103,0 2.008052,1.017 2.008052,2.0081 0,1.7107 -1.506052,2.8374 -2.978547,2.2284 z"
       style="fill:#ffffff;fill-opacity:1;stroke-width:0.1;stroke-miterlimit:4;stroke-dasharray:none;image-rendering:auto" />
    <path
       inkscape:connector-curvature="0"
       id="path4138"
       d="m 36.796549,1038.2248 c -3.252324,-1.3686 -7.094974,-5.4182 -10.484586,-11.0492 -0.679133,-1.1282 -1.581427,-2.7651 -2.005109,-3.6375 -0.42368,-0.8725 -0.835393,-1.5461 -0.914918,-1.4969 -0.265711,0.1642 -1.905849,4.2148 -2.40247,5.9334 -0.929801,3.2175 -1.083264,5.1572 -0.53341,6.7423 0.431573,1.2441 1.047701,1.6885 2.327172,1.6786 1.06635,-0.01 2.485582,-0.5614 4.104302,-1.5995 0.747877,-0.4797 0.967413,-0.5436 1.20103,-0.3497 0.728252,0.6043 0.07599,1.3579 -2.129694,2.4602 -5.624169,2.811 -8.559805,-1.0686 -6.516262,-8.6115 0.552308,-2.0386 1.620632,-4.8045 2.624573,-6.7951 l 0.664964,-1.3185 -0.878023,-2.5715 c -0.646689,-1.8941 -0.960957,-2.5719 -1.19281,-2.5729 -0.619951,-0 -3.663428,0.9736 -4.757884,1.5261 -2.509468,1.2667 -3.406991,2.7039 -2.628659,4.209 0.36788,0.7114 1.815691,2.0239 2.768999,2.5103 0.913048,0.4658 1.059471,0.6571 0.896336,1.1711 -0.17053,0.5372 -0.784166,0.48 -1.93607,-0.1807 -1.237588,-0.7099 -2.587315,-2.0188 -3.015953,-2.9247 -0.417389,-0.8822 -0.426515,-2.3079 -0.02026,-3.164 0.749499,-1.5794 3.251878,-3.1401 6.464538,-4.0317 0.976297,-0.271 1.868348,-0.5206 1.982336,-0.5547 0.145787,-0.044 0.133802,-0.4807 -0.04041,-1.4739 -0.352292,-2.0083 -0.330344,-5.1818 0.04509,-6.5198 0.567736,-2.0234 1.826225,-3.059 3.717378,-3.059 1.20211,0 2.235888,0.3949 3.917093,1.4963 1.394895,0.9138 1.652933,1.2507 1.339437,1.7486 -0.318532,0.5058 -0.710852,0.4568 -1.511761,-0.189 -0.415885,-0.3354 -1.301951,-0.8681 -1.96903,-1.1839 -1.517093,-0.7182 -2.744686,-0.6717 -3.434264,0.13 -0.626201,0.728 -1.021715,2.2695 -1.021715,3.9821 0,1.5764 0.322632,4.1742 0.567651,4.5706 0.111973,0.1812 0.483324,0.1877 1.628171,0.029 0.815711,-0.1135 1.98983,-0.2063 2.60915,-0.2063 l 1.126038,0 1.43039,-1.6859 c 3.107803,-3.6631 6.690306,-6.5322 9.311539,-7.4574 2.117747,-0.7474 3.607893,-0.5485 4.757315,0.635 0.99026,1.0197 1.322077,2.3422 1.192724,4.7539 -0.118294,2.2054 -0.212199,2.5375 -0.767384,2.7137 -0.468554,0.1488 -0.983646,-0.4113 -0.805242,-0.8754 0.0621,-0.1616 0.160756,-0.9856 0.219235,-1.8311 0.127234,-1.8397 -0.132598,-2.9508 -0.887694,-3.7959 -0.484205,-0.5419 -0.660414,-0.6101 -1.575922,-0.6099 -2.310901,5e-4 -6.053552,2.4967 -9.470221,6.3161 -1.565111,1.7496 -1.530592,1.8296 0.791081,1.834 4.565301,0.01 11.095252,1.4125 14.77311,3.1764 3.296279,1.5808 4.88555,3.2862 4.88555,5.2423 0,1.3055 -0.382129,2.1173 -1.467527,3.1178 -1.155734,1.0653 -3.448859,2.1663 -3.95154,1.8973 -0.723113,-0.387 -0.33865,-0.9599 1.150506,-1.7144 2.108867,-1.0685 2.923407,-1.985 2.923407,-3.2894 0,-2.013 -3.693594,-4.3386 -9.095084,-5.7264 -3.044916,-0.7824 -5.899287,-1.1743 -9.474471,-1.3011 l -3.100317,-0.1098 -0.894484,1.2287 c -0.491965,0.6758 -1.381706,2.0337 -1.977204,3.0177 l -1.082724,1.7889 1.456613,2.9191 c 4.476083,8.9701 11.091202,15.4672 14.141963,13.8896 1.005419,-0.52 1.429463,-1.6176 1.529682,-3.9599 0.143137,-3.3453 -0.963124,-7.9739 -3.026429,-12.6626 -0.8574,-1.9484 -0.901911,-2.1714 -0.500104,-2.5048 0.533135,-0.4425 1.007163,0.1204 1.917261,2.2765 2.335815,5.5338 3.392217,10.4953 2.968807,13.9433 -0.223914,1.8234 -0.779917,3.0295 -1.763706,3.8257 -1.00462,0.8131 -2.633001,0.9105 -4.2001,0.2509 z M 25.163962,1016.148 c 0.61228,-0.955 1.073424,-1.7761 1.024766,-1.8248 -0.09687,-0.097 -3.614661,0.2995 -3.736136,0.421 -0.04127,0.041 0.206927,0.9214 0.551553,1.9558 0.525327,1.5769 0.660528,1.8246 0.83659,1.5326 0.115497,-0.1916 0.710951,-1.1297 1.323227,-2.0846 z"
       style="fill:#ffffff;fill-opacity:1;stroke-width:0.1;stroke-miterlimit:4;stroke-dasharray:none" />
  </g>
</svg>
