<?xml version="1.0" encoding="UTF-8" standalone="no"?>
<!-- Created with Inkscape (http://www.inkscape.org/) -->

<svg
   xmlns:dc="http://purl.org/dc/elements/1.1/"
   xmlns:cc="http://creativecommons.org/ns#"
   xmlns:rdf="http://www.w3.org/1999/02/22-rdf-syntax-ns#"
   xmlns:svg="http://www.w3.org/2000/svg"
   xmlns="http://www.w3.org/2000/svg"
   xmlns:sodipodi="http://sodipodi.sourceforge.net/DTD/sodipodi-0.dtd"
   xmlns:inkscape="http://www.inkscape.org/namespaces/inkscape"
   width="256"
   height="256"
   viewBox="0 0 256 256"
   id="svg2"
   version="1.1"
   inkscape:version="0.91 r13725"
   sodipodi:docname="filezilla.svg">
  <defs
     id="defs4" />
  <sodipodi:namedview
     id="base"
     pagecolor="#ffffff"
     bordercolor="#666666"
     borderopacity="1.0"
     inkscape:pageopacity="0.0"
     inkscape:pageshadow="2"
     inkscape:zoom="0.7"
     inkscape:cx="153.39903"
     inkscape:cy="1.3725858"
     inkscape:document-units="px"
     inkscape:current-layer="layer1"
     showgrid="false"
     units="px"
     inkscape:window-width="1366"
     inkscape:window-height="703"
     inkscape:window-x="0"
     inkscape:window-y="0"
     inkscape:window-maximized="1"
     showguides="false" />
  <metadata
     id="metadata7">
    <rdf:RDF>
      <cc:Work
         rdf:about="">
        <dc:format>image/svg+xml</dc:format>
        <dc:type
           rdf:resource="http://purl.org/dc/dcmitype/StillImage" />
        <dc:title />
      </cc:Work>
    </rdf:RDF>
  </metadata>
  <g
     inkscape:label="Layer 1"
     inkscape:groupmode="layer"
     id="layer1"
     transform="translate(0,-796.36216)">
    <rect
       style="fill:#aa0000;fill-rule:evenodd;stroke:#000000;stroke-width:0;stroke-linecap:butt;stroke-linejoin:miter;stroke-opacity:1;stroke-miterlimit:4;stroke-dasharray:none;fill-opacity:1"
       id="rect3336"
       width="202.61562"
       height="202.61562"
       x="-664.62292"
       y="642.82465"
       ry="46.696564"
       transform="matrix(0.70710678,-0.70710678,0.70710678,0.70710678,0,0)" />
    <path
       style="opacity:1;fill:#808000;fill-opacity:1;stroke-width:0;stroke-miterlimit:4;stroke-dasharray:none"
       d=""
       id="path4916"
       inkscape:connector-curvature="0"
       transform="translate(0,796.36216)" />
    <path
       style="opacity:1;fill:#808000;fill-opacity:1;stroke-width:0;stroke-miterlimit:4;stroke-dasharray:none"
       d=""
       id="path4918"
       inkscape:connector-curvature="0"
       transform="translate(0,796.36216)" />
    <path
       style="opacity:1;fill:#808000;fill-opacity:1;stroke-width:0;stroke-miterlimit:4;stroke-dasharray:none"
       d=""
       id="path4920"
       inkscape:connector-curvature="0"
       transform="translate(0,796.36216)" />
    <path
       style="opacity:1;fill:#808000;fill-opacity:1;stroke-width:0;stroke-miterlimit:4;stroke-dasharray:none"
       d=""
       id="path4974"
       inkscape:connector-curvature="0"
       transform="translate(0,796.36216)" />
    <path
       style="opacity:1;fill:#808000;fill-opacity:1;stroke-width:0;stroke-miterlimit:4;stroke-dasharray:none"
       d=""
       id="path4976"
       inkscape:connector-curvature="0"
       transform="translate(0,796.36216)" />
    <path
       style="opacity:1;fill:#808000;fill-opacity:1;stroke-width:0;stroke-miterlimit:4;stroke-dasharray:none"
       d=""
       id="path4978"
       inkscape:connector-curvature="0"
       transform="translate(0,796.36216)" />
    <path
       style="opacity:1;fill:#808000;fill-opacity:1;stroke-width:0;stroke-miterlimit:4;stroke-dasharray:none"
       d=""
       id="path4980"
       inkscape:connector-curvature="0"
       transform="translate(0,796.36216)" />
    <path
       style="opacity:1;fill:#808000;fill-opacity:1;stroke-width:0;stroke-miterlimit:4;stroke-dasharray:none"
       d=""
       id="path4982"
       inkscape:connector-curvature="0"
       transform="translate(0,796.36216)" />
    <path
       style="opacity:1;fill:#808000;fill-opacity:1;stroke-width:0;stroke-miterlimit:4;stroke-dasharray:none"
       d=""
       id="path5006"
       inkscape:connector-curvature="0"
       transform="translate(0,796.36216)" />
    <path
       style="opacity:1;fill:#ffffff;fill-opacity:1;stroke-width:0;stroke-miterlimit:4;stroke-dasharray:none"
       d="m 140.59602,983.32766 c -10.08111,-1.6425 -11.40958,-1.6835 -15.9928,-0.494 l -4.99844,1.2972 -3.57718,-5.611 c -1.96745,-3.08603 -3.57341,-5.88321 -3.56879,-6.21593 0.004,-0.33265 9.8749,-10.47853 21.93398,-22.54636 12.05907,-12.06781 21.72898,-22.2596 21.48868,-22.64842 -0.66339,-1.07337 -50.2592,-0.88028 -52.28437,0.20356 -0.9357,0.50077 -1.70128,1.61817 -1.70128,2.48311 0,0.86493 -0.98361,6.68902 -2.185799,12.94241 -1.2022,6.2534 -2.605,13.5467 -3.11735,16.20737 -0.51234,2.66062 -1.34929,6.71755 -1.85989,9.01535 l -0.92837,4.17785 -11.00453,0 -11.00454,0 0.59585,-3.29828 c 1.37149,-7.59189 20.17096,-94.404 21.52523,-99.39911 l 1.01616,-3.74804 35.365309,0.22984 35.36531,0.22983 -0.14755,6.12052 c -0.0812,3.36628 -0.40225,7.819 -0.71355,9.89493 l -0.56602,3.77442 -26.19777,0 -26.19778,0 -1.87887,10.71626 c -1.03337,5.89395 -1.78669,10.80016 -1.67404,10.9027 0.11266,0.10255 18.60941,0.52455 41.1039,0.93778 l 40.89908,0.75134 0.25642,5.288 0.25643,5.288 -10.81103,10.48395 c -23.72675,23.00893 -34.28637,33.54382 -35.09352,35.01137 -0.79053,1.43731 0.0933,1.53921 13.3501,1.53921 9.99729,0 15.759,-0.40487 19.47835,-1.36861 2.90492,-0.75273 5.49137,-1.1589 5.74768,-0.90265 0.2563,0.25631 0.11356,3.73173 -0.3172,7.72321 l -0.78319,7.25719 -4.39774,1.6465 c -5.16046,1.9321 -17.83902,4.1525 -22.8683,4.005 -1.93501,-0.057 -8.46567,-0.9093 -14.51258,-1.8945 z"
       id="path5099"
       inkscape:connector-curvature="0" />
  </g>
</svg>
