<?xml version="1.0" encoding="UTF-8" standalone="no"?>
<!-- Created with Inkscape (http://www.inkscape.org/) -->

<svg
   xmlns:dc="http://purl.org/dc/elements/1.1/"
   xmlns:cc="http://creativecommons.org/ns#"
   xmlns:rdf="http://www.w3.org/1999/02/22-rdf-syntax-ns#"
   xmlns:svg="http://www.w3.org/2000/svg"
   xmlns="http://www.w3.org/2000/svg"
   xmlns:sodipodi="http://sodipodi.sourceforge.net/DTD/sodipodi-0.dtd"
   xmlns:inkscape="http://www.inkscape.org/namespaces/inkscape"
   width="128"
   height="128"
   viewBox="0 0 128 128"
   id="svg2"
   version="1.1"
   inkscape:version="0.91 r13725"
   sodipodi:docname="blender.svg">
  <defs
     id="defs4" />
  <sodipodi:namedview
     id="base"
     pagecolor="#ffffff"
     bordercolor="#666666"
     borderopacity="1.0"
     inkscape:pageopacity="0.0"
     inkscape:pageshadow="2"
     inkscape:zoom="2.8"
     inkscape:cx="122.87371"
     inkscape:cy="54.677624"
     inkscape:document-units="px"
     inkscape:current-layer="layer1"
     showgrid="false"
     units="px"
     inkscape:window-width="1366"
     inkscape:window-height="703"
     inkscape:window-x="0"
     inkscape:window-y="0"
     inkscape:window-maximized="1" />
  <metadata
     id="metadata7">
    <rdf:RDF>
      <cc:Work
         rdf:about="">
        <dc:format>image/svg+xml</dc:format>
        <dc:type
           rdf:resource="http://purl.org/dc/dcmitype/StillImage" />
        <dc:title></dc:title>
      </cc:Work>
    </rdf:RDF>
  </metadata>
  <g
     inkscape:label="Layer 1"
     inkscape:groupmode="layer"
     id="layer1"
     transform="translate(0,-924.36216)">
    <rect
       style="fill:#ff5c40;fill-opacity:1;fill-rule:evenodd;stroke:#000000;stroke-width:0;stroke-linecap:butt;stroke-linejoin:miter;stroke-miterlimit:4;stroke-dasharray:none;stroke-opacity:1"
       id="rect3336"
       width="98.804665"
       height="98.804665"
       x="-702.54413"
       y="694.73016"
       ry="22.771385"
       transform="matrix(0.70710678,-0.70710678,0.70710678,0.70710678,0,0)" />
    <path
       style="opacity:1;fill:#ffffff;fill-opacity:1;stroke-width:0;stroke-miterlimit:4;stroke-dasharray:none"
       d="m 72.225713,996.95457 c -3.166757,-0.688 -6.045184,-2.99933 -7.10049,-5.70153 -0.76376,-1.95575 -0.725036,-4.60359 0.09314,-6.36791 3.502536,-7.55281 14.926484,-7.66104 18.474234,-0.17502 0.627678,1.32445 0.718916,1.76864 0.718916,3.49983 0,1.66326 -0.100772,2.19788 -0.62519,3.31677 -1.279506,2.7299 -3.945343,4.7642 -7.126672,5.4383 -1.901535,0.40297 -2.53804,0.40145 -4.433939,-0.0104 z"
       id="path4284"
       inkscape:connector-curvature="0" />
    <path
       style="opacity:1;fill:#ffffff;fill-opacity:1;stroke-width:0;stroke-miterlimit:4;stroke-dasharray:none"
       d="m 69.186616,1013.7687 c -5.463667,-1.0362 -9.839094,-3.2296 -13.589962,-6.8132 -2.505477,-2.3938 -3.803316,-4.1525 -5.139463,-6.96503 -1.451416,-3.05508 -1.949116,-5.04604 -1.938953,-7.75647 0.0045,-1.18681 -0.0055,-2.15783 -0.02203,-2.15783 -0.01656,0 -3.489635,2.83334 -7.717941,6.29633 -8.463788,6.9318 -9.192134,7.3857 -11.482833,7.1564 -0.675904,-0.067 -1.586998,-0.3443 -2.024634,-0.6148 -0.898226,-0.5552 -1.761914,-2.1244 -1.761914,-3.20127 0,-0.94271 0.543177,-2.44504 1.211295,-3.35019 0.296061,-0.40112 6.783937,-5.52254 14.417514,-11.38099 L 55.016916,974.32992 46.853,974.21328 c -5.468759,-0.0782 -8.363283,-0.20627 -8.767799,-0.38815 -0.332139,-0.14933 -0.894551,-0.61695 -1.249809,-1.03915 -0.557121,-0.66211 -0.631277,-0.92007 -0.53938,-1.87647 0.13869,-1.44331 0.979242,-2.53829 2.548978,-3.32052 l 1.218722,-0.60731 15.603251,0 c 8.879065,0 15.569732,-0.0884 15.525478,-0.20515 -0.04277,-0.11283 -2.345918,-2.04928 -5.118101,-4.30321 -5.224112,-4.24749 -5.75841,-4.85082 -5.467744,-6.17423 0.448214,-2.04069 4.044003,-3.31387 6.201441,-2.19577 1.577817,0.81771 25.072911,19.03417 26.747604,20.73823 2.893017,2.94375 4.818384,6.35172 5.948007,10.52814 0.721482,2.6675 0.716212,7.59062 -0.01107,10.30514 -1.176548,4.39147 -2.836581,7.22967 -6.216518,10.62847 -3.690602,3.7113 -7.14371,5.6998 -12.207537,7.0296 -1.889393,0.4962 -2.899678,0.6058 -6.2214,0.6747 -2.7145,0.056 -4.500459,-0.019 -5.66052,-0.2389 l 0,0 z m 7.643376,-10.8774 c 1.996417,-0.3225 4.390329,-1.1671 6.026629,-2.1262 1.649395,-0.96674 4.41107,-3.67145 5.288164,-5.179 4.674012,-8.03382 0.679998,-17.46666 -8.753779,-20.67411 -2.33086,-0.79249 -6.728957,-0.91675 -9.313641,-0.26313 -2.916834,0.73761 -5.126041,1.9298 -7.207177,3.88933 -3.189911,3.00351 -4.581832,6.13727 -4.554948,10.25495 0.01692,2.59136 0.487928,4.35157 1.779015,6.6484 0.894474,1.59129 3.611734,4.29244 5.355415,5.32356 3.306482,1.9554 7.540243,2.7464 11.380322,2.1262 z"
       id="path4286"
       inkscape:connector-curvature="0" />
  </g>
</svg>
