<?xml version="1.0" encoding="UTF-8" standalone="no"?>
<!-- Created with Inkscape (http://www.inkscape.org/) -->

<svg
   xmlns:dc="http://purl.org/dc/elements/1.1/"
   xmlns:cc="http://creativecommons.org/ns#"
   xmlns:rdf="http://www.w3.org/1999/02/22-rdf-syntax-ns#"
   xmlns:svg="http://www.w3.org/2000/svg"
   xmlns="http://www.w3.org/2000/svg"
   xmlns:sodipodi="http://sodipodi.sourceforge.net/DTD/sodipodi-0.dtd"
   xmlns:inkscape="http://www.inkscape.org/namespaces/inkscape"
   width="128"
   height="128"
   viewBox="0 0 128 128"
   id="svg2"
   version="1.1"
   inkscape:version="0.91 r13725"
   sodipodi:docname="dolphin-emu.svg">
  <defs
     id="defs4" />
  <sodipodi:namedview
     id="base"
     pagecolor="#ffffff"
     bordercolor="#666666"
     borderopacity="1.0"
     inkscape:pageopacity="0.0"
     inkscape:pageshadow="2"
     inkscape:zoom="2.8"
     inkscape:cx="61.962775"
     inkscape:cy="53.303309"
     inkscape:document-units="px"
     inkscape:current-layer="layer1"
     showgrid="false"
     units="px"
     inkscape:window-width="1366"
     inkscape:window-height="703"
     inkscape:window-x="0"
     inkscape:window-y="0"
     inkscape:window-maximized="1"
     showguides="false" />
  <metadata
     id="metadata7">
    <rdf:RDF>
      <cc:Work
         rdf:about="">
        <dc:format>image/svg+xml</dc:format>
        <dc:type
           rdf:resource="http://purl.org/dc/dcmitype/StillImage" />
        <dc:title></dc:title>
      </cc:Work>
    </rdf:RDF>
  </metadata>
  <g
     inkscape:label="Layer 1"
     inkscape:groupmode="layer"
     id="layer1"
     transform="translate(0,-924.36216)">
    <rect
       style="fill:#74c0eb;fill-opacity:1;fill-rule:evenodd;stroke:#000000;stroke-width:0;stroke-linecap:butt;stroke-linejoin:miter;stroke-miterlimit:4;stroke-dasharray:none;stroke-opacity:1"
       id="rect3336"
       width="100.46693"
       height="100.46693"
       x="-703.45215"
       y="693.89899"
       ry="23.154484"
       transform="matrix(0.70710678,-0.70710678,0.70710678,0.70710678,0,0)" />
    <path
       style="opacity:1;fill:#808000;fill-opacity:1;stroke-width:0;stroke-miterlimit:4;stroke-dasharray:none"
       d=""
       id="path4916"
       inkscape:connector-curvature="0"
       transform="translate(0,796.36216)" />
    <path
       style="opacity:1;fill:#808000;fill-opacity:1;stroke-width:0;stroke-miterlimit:4;stroke-dasharray:none"
       d=""
       id="path4918"
       inkscape:connector-curvature="0"
       transform="translate(0,796.36216)" />
    <path
       style="opacity:1;fill:#808000;fill-opacity:1;stroke-width:0;stroke-miterlimit:4;stroke-dasharray:none"
       d=""
       id="path4920"
       inkscape:connector-curvature="0"
       transform="translate(0,796.36216)" />
    <path
       style="opacity:1;fill:#808000;fill-opacity:1;stroke-width:0;stroke-miterlimit:4;stroke-dasharray:none"
       d=""
       id="path4974"
       inkscape:connector-curvature="0"
       transform="translate(0,796.36216)" />
    <path
       style="opacity:1;fill:#808000;fill-opacity:1;stroke-width:0;stroke-miterlimit:4;stroke-dasharray:none"
       d=""
       id="path4976"
       inkscape:connector-curvature="0"
       transform="translate(0,796.36216)" />
    <path
       style="opacity:1;fill:#808000;fill-opacity:1;stroke-width:0;stroke-miterlimit:4;stroke-dasharray:none"
       d=""
       id="path4978"
       inkscape:connector-curvature="0"
       transform="translate(0,796.36216)" />
    <path
       style="opacity:1;fill:#808000;fill-opacity:1;stroke-width:0;stroke-miterlimit:4;stroke-dasharray:none"
       d=""
       id="path4980"
       inkscape:connector-curvature="0"
       transform="translate(0,796.36216)" />
    <path
       style="opacity:1;fill:#808000;fill-opacity:1;stroke-width:0;stroke-miterlimit:4;stroke-dasharray:none"
       d=""
       id="path4982"
       inkscape:connector-curvature="0"
       transform="translate(0,796.36216)" />
    <path
       style="opacity:1;fill:#808000;fill-opacity:1;stroke-width:0;stroke-miterlimit:4;stroke-dasharray:none"
       d=""
       id="path5006"
       inkscape:connector-curvature="0"
       transform="translate(0,796.36216)" />
    <path
       style="opacity:1;fill:#ffffff;fill-opacity:1;stroke-width:0;stroke-miterlimit:4;stroke-dasharray:none"
       d="m 70.743469,1006.0659 c -1.625782,-1.5714 -2.872696,-2.4164 -4.023117,-2.7262 -1.839162,-0.4952 -1.903091,-0.9392 -0.306802,-2.131 1.496599,-1.1174 5.761086,-1.33007 8.490555,-0.4235 l 2.035028,0.6759 -0.176384,2.1271 c -0.213433,2.5736 0.407395,2.2061 1.412582,-0.8363 3.408933,-10.31798 -2.489255,-21.19848 -13.161203,-24.2787 -1.233739,-0.35611 -2.812744,-0.59197 -3.508902,-0.52416 -1.126427,0.10973 -1.323725,0.31721 -1.792646,1.8852 -0.494645,1.65399 -0.454788,3.48234 0.142948,6.55816 0.201282,1.03575 0.122784,1.27249 -0.421893,1.27249 -1.900215,0 -4.220475,-2.92008 -4.92296,-6.19563 -0.48821,-2.27645 -1.026023,-2.50813 -3.22778,-1.3905 -3.552931,1.80351 -7.396515,6.59709 -10.261274,12.79749 -1.520334,3.29054 -1.793205,3.57692 -3.096695,3.24976 -0.73466,-0.18439 -0.993384,-0.65816 -1.396342,-2.55699 -0.272031,-1.28189 -0.378237,-2.95097 -0.236009,-3.7091 0.213765,-1.13947 0.06216,-1.6496 -0.874468,-2.94259 -4.842008,-6.6842 -0.867025,-17.78241 8.046673,-22.46642 4.100737,-2.15488 7.766363,-3.04139 13.331504,-3.22418 l 4.808762,-0.15793 1.277443,-1.67484 c 3.333668,-4.37074 8.644046,-6.54695 15.252128,-6.25039 2.21402,0.0993 2.240884,0.93503 0.103499,3.22007 -1.852237,1.98019 -3.5599,5.13088 -3.927567,7.24651 -0.184323,1.06061 0.01978,1.30237 2.624221,3.10773 1.553255,1.07672 3.677783,3.01481 4.721179,4.30687 2.279382,2.82262 4.73258,7.67354 5.643134,11.15869 0.89427,3.42284 0.887541,9.93233 -0.01378,13.3121 -0.725083,2.71894 -2.991805,7.96576 -3.305743,7.65186 -0.10387,-0.1039 -1.354126,0.4142 -2.778345,1.1515 -1.424215,0.7372 -3.829751,1.9487 -5.345624,2.6922 l -2.756146,1.3518 -2.355987,-2.277 10e-6,0 z M 42.745316,980.47116 c 0.656969,-0.7916 0.09856,-1.81152 -0.991827,-1.81152 -1.012369,0 -1.54444,0.7981 -1.174598,1.7619 0.282055,0.73502 1.573052,0.76459 2.166425,0.0497 z"
       id="path5049"
       inkscape:connector-curvature="0" />
    <path
       style="opacity:1;fill:#ffffff;fill-opacity:1;stroke-width:0;stroke-miterlimit:4;stroke-dasharray:none"
       d="m 82.72284,1020.3725 c 0,-1.7044 -0.976948,-3.4258 -3.326335,-5.8613 -2.148184,-2.227 -2.232955,-2.3928 -2.050646,-4.0101 l 0.190163,-1.6871 -1.419802,0.2062 c -1.27709,0.1856 -2.852628,-0.2988 -2.387294,-0.7339 0.465198,-0.435 9.878208,-4.9894 10.019684,-4.8479 0.08789,0.087 -0.20672,0.6258 -0.654692,1.1953 l -0.814487,1.0354 1.3847,2.2544 c 2.760987,4.4953 3.319691,8.2616 1.701554,11.4705 -1.06032,2.1027 -2.642845,2.6886 -2.642845,0.9785 z"
       id="path5051"
       inkscape:connector-curvature="0" />
    <path
       style="opacity:1;fill:#ffffff;fill-opacity:1;stroke-width:0;stroke-miterlimit:4;stroke-dasharray:none"
       d="m 80.049257,1004.9156 c 2.108894,-1.0855 3.333896,-1.6452 3.74794,-1.7123 0.236174,-0.039 0.245333,-0.033 0.195871,0.1259 -0.06452,0.2065 -0.19474,0.297 -0.240848,0.1675 -0.02787,-0.078 -0.129189,-0.059 -0.520123,0.098 -0.616118,0.2478 -3.138095,1.4188 -4.202679,1.9514 -0.446711,0.2234 -0.851613,0.4055 -0.899779,0.4044 -0.04815,0 0.815658,-0.4667 1.919618,-1.0348 z"
       id="path5053"
       inkscape:connector-curvature="0" />
    <path
       style="opacity:1;fill:#ffffff;fill-opacity:1;stroke-width:0;stroke-miterlimit:4;stroke-dasharray:none"
       d="m 83.07591,1021.2715 c -0.167886,-0.067 -0.28078,-0.4109 -0.326889,-0.994 -0.08755,-1.1073 -0.415046,-2.0254 -1.091748,-3.0607 -0.539767,-0.8259 -1.072979,-1.465 -2.448585,-2.9353 -1.240369,-1.3257 -1.698827,-1.9214 -1.823271,-2.3694 -0.09679,-0.3485 -0.0898,-0.6415 0.04596,-1.9261 0.06527,-0.6175 0.101347,-1.14 0.08019,-1.1612 -0.02112,-0.021 -0.33094,0.01 -0.688388,0.067 -1.348053,0.2187 -2.722038,0.078 -3.077929,-0.3154 -0.130974,-0.1447 -0.130304,-0.1476 0.07512,-0.314 0.398029,-0.3226 6.871175,-3.5116 9.066644,-4.4666 0.418746,-0.1822 0.721997,-0.3321 0.673895,-0.3331 -0.103226,0 -1.470368,0.5975 -2.778698,1.2191 -0.510492,0.2426 -0.942074,0.4271 -0.959068,0.4101 -0.07477,-0.074 3.157949,-1.6109 3.773314,-1.7931 0.307536,-0.091 0.363373,-0.093 0.363373,-0.01 0,0.054 -0.05671,0.1532 -0.126015,0.2213 -0.06931,0.068 -0.207707,0.2666 -0.307556,0.441 -0.09985,0.1744 -0.4169,0.6182 -0.704553,0.9862 -0.287652,0.3679 -0.523007,0.7031 -0.523007,0.7448 0,0.042 0.338412,0.6257 0.752031,1.2978 1.448119,2.3533 2.038706,3.5207 2.533395,5.0075 0.488789,1.4691 0.613991,2.1807 0.618697,3.5167 0.0055,1.5755 -0.186068,2.4552 -0.821667,3.7721 -0.682434,1.4141 -1.655991,2.2567 -2.305257,1.9956 z"
       id="path5055"
       inkscape:connector-curvature="0" />
    <path
       style="opacity:1;fill:#ffffff;fill-opacity:1;stroke-width:0;stroke-miterlimit:4;stroke-dasharray:none"
       d="m 82.926049,1021.1007 c -0.08719,-0.1433 -0.148443,-0.4193 -0.180494,-0.8132 -0.06615,-0.813 -0.252829,-1.5059 -0.583933,-2.1674 -0.569751,-1.1384 -1.19361,-1.946 -3.010364,-3.8968 -1.967542,-2.1127 -1.962653,-2.1004 -1.720297,-4.3081 0.0637,-0.5804 0.101408,-1.0696 0.08378,-1.0872 -0.01765,-0.017 -0.342235,0.015 -0.721357,0.073 -0.767808,0.1176 -2.110174,0.099 -2.54067,-0.037 -0.142696,-0.045 -0.345142,-0.1579 -0.449895,-0.2517 l -0.19045,-0.1702 0.207646,-0.1774 c 0.114199,-0.098 1.733804,-0.9382 3.599117,-1.8678 1.865312,-0.9297 3.367236,-1.6905 3.337595,-1.6908 -0.02961,-3e-4 -0.243026,0.095 -0.474197,0.2117 -0.23117,0.1166 -0.437001,0.1954 -0.457391,0.175 -0.08041,-0.08 3.420893,-1.7366 3.944362,-1.8657 0.210988,-0.052 0.264337,0.078 0.100166,0.245 -0.04961,0.05 -0.232143,0.3094 -0.405656,0.5759 -0.173502,0.2664 -0.506674,0.7299 -0.740378,1.03 -0.233704,0.3001 -0.424918,0.5674 -0.424918,0.5942 0,0.026 0.159331,0.3108 0.354076,0.6311 1.652891,2.719 2.153758,3.6431 2.651403,4.8923 0.321182,0.8062 0.619079,1.8058 0.778187,2.6115 0.164301,0.8319 0.163294,2.7496 -0.0019,3.4841 -0.485705,2.1608 -1.746379,4.0257 -2.721318,4.0257 -0.263371,0 -0.317795,-0.028 -0.433194,-0.2171 z m -1.527123,-16.6365 c 0.247444,-0.1295 0.41875,-0.2355 0.380678,-0.2355 -0.03808,0 -0.271666,0.106 -0.519105,0.2355 -0.247439,0.1296 -0.41874,0.2355 -0.380674,0.2355 0.03808,0 0.271661,-0.1059 0.519101,-0.2355 z m 1.160189,-0.5235 c 0.276462,-0.1235 0.490539,-0.2367 0.475733,-0.2515 -0.01478,-0.015 -0.287717,0.1 -0.606474,0.2538 -0.671837,0.3252 -0.599447,0.324 0.130741,0 z m 0.7778,-0.3416 c 0.0571,-0.037 0.07268,-0.067 0.03461,-0.067 -0.03808,0 -0.115929,0.031 -0.173036,0.067 -0.0571,0.037 -0.07268,0.067 -0.03461,0.067 0.03808,0 0.115939,-0.03 0.173036,-0.067 z"
       id="path5057"
       inkscape:connector-curvature="0" />
    <path
       style="opacity:1;fill:#ffffff;fill-opacity:1;stroke-width:0;stroke-miterlimit:4;stroke-dasharray:none"
       d="m 82.925568,1021.1 c -0.0829,-0.1364 -0.149032,-0.4147 -0.176756,-0.7441 -0.165227,-1.9628 -0.910638,-3.2357 -3.57114,-6.098 -1.257524,-1.3528 -1.467794,-1.6123 -1.685125,-2.0792 -0.213321,-0.4583 -0.222866,-0.7896 -0.0653,-2.2668 0.06209,-0.5822 0.101245,-1.0687 0.087,-1.0813 -0.01423,-0.012 -0.337366,0.022 -0.718041,0.077 -0.964964,0.1389 -2.248783,0.094 -2.664736,-0.093 -0.171302,-0.077 -0.355619,-0.1937 -0.409587,-0.2591 -0.08605,-0.1042 -0.08069,-0.1363 0.04344,-0.2604 0.07787,-0.078 1.454387,-0.8021 3.058942,-1.6093 1.60455,-0.8072 2.897638,-1.4875 2.873514,-1.5116 -0.04968,-0.05 2.569609,-1.3673 3.362274,-1.6914 0.748813,-0.3062 0.899779,-0.3339 0.899779,-0.1651 0,0.075 -0.03922,0.1612 -0.08719,0.1916 -0.04794,0.031 -0.176676,0.1955 -0.286041,0.3668 -0.109375,0.1713 -0.447539,0.6468 -0.75148,1.0567 l -0.552619,0.7452 0.968716,1.608 c 2.08371,3.459 2.843387,5.4544 2.968847,7.7982 0.08247,1.5407 -0.178769,2.8456 -0.83929,4.192 -0.629744,1.2837 -1.380506,2.0418 -2.022146,2.0418 -0.262924,0 -0.317215,-0.028 -0.43307,-0.2178 z m -2.946012,-15.9775 c 0.02424,-0.04 -0.0035,-0.051 -0.06513,-0.027 -0.119906,0.046 -0.141843,0.096 -0.0423,0.096 0.0358,0 0.08416,-0.03 0.107417,-0.068 z m 1.41937,-0.6583 c 0.171306,-0.092 0.280318,-0.1668 0.242252,-0.1668 -0.03808,0 -0.209373,0.075 -0.380679,0.1668 -0.171301,0.092 -0.280314,0.1668 -0.242247,0.1668 0.03808,0 0.209372,-0.075 0.380674,-0.1668 z m 1.453494,-0.6575 c 0.05711,-0.037 0.07267,-0.067 0.03461,-0.067 -0.03808,0 -0.115934,0.029 -0.173031,0.067 -0.05711,0.037 -0.07268,0.067 -0.03461,0.067 0.03808,0 0.11593,-0.029 0.173032,-0.067 z"
       id="path5059"
       inkscape:connector-curvature="0" />
    <path
       style="opacity:1;fill:#ffffff;fill-opacity:1;stroke-width:0;stroke-miterlimit:4;stroke-dasharray:none"
       d="m 82.924923,1021.099 c -0.07635,-0.1256 -0.150818,-0.4133 -0.174653,-0.6749 -0.185378,-2.0343 -0.876053,-3.2366 -3.477955,-6.0537 -2.108571,-2.2831 -2.095754,-2.252 -1.849579,-4.4839 0.05908,-0.5356 0.09156,-0.9897 0.07215,-1.0091 -0.01939,-0.019 -0.388552,0 -0.820334,0.052 -1.462216,0.163 -2.630662,0.015 -2.950614,-0.3718 -0.08291,-0.1008 -0.079,-0.1353 0.02856,-0.2541 0.06856,-0.075 1.334287,-0.7459 2.812713,-1.4892 1.478427,-0.7434 2.688047,-1.3758 2.688047,-1.4055 0,-0.087 0.486479,-0.2942 0.569162,-0.2431 0.04423,0.027 0.0553,0.014 0.02692,-0.032 -0.07591,-0.1228 3.263436,-1.7573 3.920139,-1.9187 0.160949,-0.04 0.190337,-0.024 0.190337,0.095 0,0.078 -0.03129,0.1612 -0.06955,0.1849 -0.03828,0.023 -0.198812,0.2356 -0.356799,0.4713 -0.157993,0.2355 -0.503729,0.7148 -0.768315,1.065 l -0.481059,0.6368 0.988998,1.6473 c 2.028562,3.3787 2.836578,5.5069 2.949785,7.769 0.07745,1.5478 -0.184178,2.8499 -0.842121,4.1911 -0.629739,1.2838 -1.3805,2.0419 -2.02214,2.0419 -0.263236,0 -0.317165,-0.027 -0.43372,-0.2189 z m -1.525997,-16.6348 c 0.09517,-0.054 0.141892,-0.099 0.103826,-0.099 -0.03808,0 -0.147084,0.045 -0.242253,0.099 -0.09516,0.054 -0.141887,0.099 -0.103816,0.099 0.03808,0 0.147079,-0.045 0.242243,-0.099 z"
       id="path5061"
       inkscape:connector-curvature="0" />
    <path
       style="opacity:1;fill:#ffffff;fill-opacity:1;stroke-width:0;stroke-miterlimit:4;stroke-dasharray:none"
       d="m 82.975153,1021.1967 c -0.142993,-0.1629 -0.174266,-0.287 -0.26585,-1.0555 -0.22224,-1.8649 -0.931305,-3.0505 -3.460764,-5.7868 -1.270833,-1.3747 -1.536634,-1.7045 -1.758938,-2.182 -0.208986,-0.4489 -0.223936,-0.9534 -0.06928,-2.3379 0.05702,-0.5104 0.08918,-0.9425 0.07149,-0.9602 -0.0177,-0.018 -0.385469,0.01 -0.817251,0.055 -1.460153,0.1627 -2.6307,0.015 -2.949533,-0.3706 -0.180742,-0.2189 -0.126446,-0.2524 2.932759,-1.8124 1.027828,-0.5241 1.879221,-0.9798 1.89199,-1.0124 0.01279,-0.033 0.0517,-0.042 0.08652,-0.02 0.03481,0.021 0.0633,0 0.0633,-0.039 0,-0.043 0.03114,-0.058 0.06921,-0.035 0.03808,0.023 0.06922,0.01 0.06922,-0.035 0,-0.043 0.03114,-0.058 0.06922,-0.035 0.03808,0.023 0.06922,0.01 0.06922,-0.035 0,-0.043 0.03114,-0.058 0.06921,-0.035 0.03808,0.023 0.06922,0.016 0.06922,-0.016 0,-0.092 0.621931,-0.3728 0.707345,-0.3199 0.04448,0.027 0.0556,0.014 0.02712,-0.032 -0.081,-0.1311 3.68057,-1.9505 4.032559,-1.9505 0.09803,0 0.102819,0.2533 0.0059,0.3133 -0.03962,0.024 -0.153019,0.1742 -0.252016,0.3328 -0.099,0.1585 -0.442139,0.6387 -0.762547,1.067 l -0.582564,0.7785 0.909428,1.5055 c 2.082709,3.4477 2.922019,5.6624 3.022954,7.9769 0.06797,1.5588 -0.178025,2.7628 -0.841463,4.1183 -0.627165,1.2813 -1.374724,2.0418 -2.00719,2.0418 -0.1923,0 -0.329443,-0.042 -0.399273,-0.1211 z"
       id="path5063"
       inkscape:connector-curvature="0" />
    <path
       style="opacity:1;fill:#ffffff;fill-opacity:1;stroke-width:0;stroke-miterlimit:4;stroke-dasharray:none"
       d="m 82.967051,1021.1913 c -0.113341,-0.1252 -0.165887,-0.357 -0.324286,-1.4309 -0.237591,-1.6104 -0.950242,-2.7346 -3.481605,-5.4918 -1.09266,-1.1901 -1.488814,-1.6777 -1.677525,-2.0651 -0.175729,-0.3606 -0.199509,-1.086 -0.07561,-2.3061 0.05606,-0.5519 0.09027,-1.0155 0.07601,-1.0301 -0.01423,-0.014 -0.301536,0.01 -0.638416,0.052 -0.772832,0.099 -1.910034,0.1007 -2.36215,0 -0.389252,-0.084 -0.801898,-0.3303 -0.801898,-0.4795 0,-0.1554 0.41635,-0.3978 2.56091,-1.4912 1.103961,-0.5629 2.092854,-1.0826 2.197543,-1.155 0.104684,-0.072 0.190818,-0.1061 0.191398,-0.075 4.16e-4,0.031 0.02395,0.023 0.05192,-0.018 0.02797,-0.041 0.541404,-0.3312 1.140971,-0.6448 2.104743,-1.1006 1.055966,-0.6134 -2.42249,1.1256 -1.93193,0.9658 -3.668331,1.8261 -3.858669,1.9118 -0.190336,0.086 -0.367147,0.168 -0.392906,0.183 -0.02578,0.015 -0.693153,-0.5973 -1.483097,-1.3609 -2.623031,-2.5351 -3.491392,-3.1555 -5.121157,-3.6578 -0.909746,-0.2805 -1.163094,-0.4484 -1.191577,-0.7897 -0.01934,-0.2316 0.01651,-0.2956 0.354876,-0.634 0.851804,-0.8518 1.838541,-1.2683 3.530306,-1.49 0.773675,-0.1018 2.793038,-0.086 3.646024,0.029 1.008633,0.1354 1.240556,0.1933 2.724853,0.6799 l 1.30596,0.4282 -0.03971,0.3822 c -0.129879,1.2498 -0.203884,2.8398 -0.145121,3.1183 0.138452,0.6564 0.476006,0.3306 1.003208,-0.9679 1.345176,-3.3133 1.749998,-6.8942 1.166264,-10.31619 -0.88297,-5.17614 -3.883432,-9.73828 -8.368725,-12.72445 -1.007161,-0.67055 -2.882628,-1.61874 -4.047876,-2.04655 -2.486628,-0.91291 -5.022319,-1.2546 -5.864183,-0.7902 -0.364062,0.20083 -0.538587,0.49913 -0.843401,1.44157 -0.339072,1.04838 -0.41876,1.60756 -0.409349,2.87238 0.0081,1.09749 0.113381,2.02428 0.435069,3.83245 0.170132,0.95625 0.172338,1.07415 0.02291,1.22357 -0.09421,0.0941 -0.206932,0.11069 -0.576276,0.0843 -1.459148,-0.1044 -3.220615,-1.98845 -4.220248,-4.51397 -0.119807,-0.30271 -0.337783,-1.02326 -0.484386,-1.60124 -0.372606,-1.46901 -0.609037,-1.90149 -1.113852,-2.03742 -0.504919,-0.13595 -1.532989,0.22337 -2.797386,0.97775 -1.910863,1.14006 -4.176055,3.43562 -6.056218,6.13738 -1.120049,1.60951 -2.065515,3.26979 -3.457558,6.07167 -1.367526,2.75254 -1.664413,3.24602 -2.08306,3.46251 -0.377338,0.19513 -1.178048,0.0818 -1.578081,-0.22329 -0.292571,-0.22315 -0.507318,-0.68645 -0.731452,-1.57809 -0.39009,-1.5518 -0.480531,-2.74975 -0.381466,-5.05261 0.02849,-0.66208 0.02034,-0.71201 -0.187092,-1.14986 -0.119282,-0.25172 -0.454749,-0.80647 -0.745489,-1.23277 -1.102949,-1.6172 -1.69381,-3.16203 -1.942473,-5.0787 -0.429435,-3.30998 0.547772,-7.2092 2.618365,-10.44775 0.843154,-1.31875 1.530841,-2.16568 2.74144,-3.37629 1.539616,-1.53962 2.707395,-2.4173 4.546035,-3.41673 l 0.840982,-0.45714 14.993862,0 c 11.934735,0 14.999305,0.0176 15.020522,0.0865 0.01468,0.0476 0.04641,0.17615 0.07058,0.28571 0.07331,0.33244 0.740988,0.95055 1.994343,1.84628 4.327281,3.09259 6.350741,5.46334 8.739904,10.23998 2.243681,4.4858 2.868516,7.15273 2.868516,12.24348 0,3.66222 -0.3101,5.91912 -1.142185,8.31305 -0.667791,1.92123 -1.959406,4.90669 -2.473706,5.71769 -0.146642,0.2314 -0.230843,0.2926 -0.450176,0.3277 -0.148384,0.023 -0.485567,0.1326 -0.749295,0.242 -0.646097,0.2678 -2.114174,0.995 -2.079336,1.0298 0.01537,0.015 0.366032,-0.141 0.779278,-0.3476 0.757574,-0.3787 1.948079,-0.8787 2.092293,-0.8787 0.04289,0 0.07794,0.046 0.07794,0.1007 0,0.1073 -0.581864,0.9642 -1.257539,1.8521 l -0.406647,0.5342 0.936359,1.5585 c 2.119276,3.5272 2.887601,5.5564 2.988664,7.8934 0.0701,1.621 -0.161953,2.7695 -0.839066,4.1528 -0.627166,1.2815 -1.374725,2.0419 -2.007186,2.0419 -0.195791,0 -0.330865,-0.042 -0.40738,-0.1265 z M 42.060299,980.93254 c 0.934085,-0.27738 1.281308,-1.28749 0.657132,-1.91167 -0.584364,-0.58435 -1.682574,-0.49889 -2.085896,0.16233 -0.400631,0.65681 -0.141722,1.53827 0.519529,1.76879 0.294897,0.1028 0.513304,0.0981 0.909235,-0.0194 z"
       id="path5065"
       inkscape:connector-curvature="0" />
  </g>
</svg>
